"Product Code;Product Name;Product Description;Stock;Cost in GBP;Discontinued"
"P0002;Cd Player;Nice CD player;0;0;yes"
"P0003;VCR;Top notch VCR;12;39.33;yes"
"1111;VCR;Top notch VCR;12;39.33;yes"
"2222;CR;Top notch VCR;12;39.33;yes"
