Product Code,Product Name,Product Description,Stock,Cost in GBP,Discontinued
P0001,TVnew,32” Tv,32,222,
P0002,Cd Player,Nice CD player,106,50.12,yes
P0003,VCR,Top notch VCR,0,0,yes
P0004,Bluray Player,Watch it in HD,111,23.55,
P0025,TV,Great for television,21,60,
P0026,Cd Player,A personal favourite,4,34.55,
